49.80075121581276,9.93422318690218,Busbahnhof E
49.79754340138301,9.933440247073944,Barbarossaplatz E
49.79477007903546,9.935944259867412,Mainfranken Theater S
49.7929621463956,9.942174823244688,Rennweg SE
49.79222590091445,9.946174950808965,Annastraße E
49.79166381628447,9.949124906138659,Greisingstraße NE
49.79127134793167,9.953791095935234,Letzter Hieb NE
49.79134162380723,9.957640703393801,Zollhaus Galgenberg S
49.78991880958122,9.95994426466094,Nopitschstraße SE
49.78753644990661,9.963116133481773,Albert-Hoffa-Straße SE
49.78553501245969,9.966447685173131,Philosophisches Institut E
49.78209753165675,9.96777311520365,Universitätszentrum N
49.78565442236145,9.966515842230807,Philosophisches Institut W
49.78764653630737,9.96320535045094,Albert-Hoffa-Straße NW
49.78984467532438,9.960285249697741,Nopitschstraße NW
49.79129520763224,9.957922841064896,Zollhaus Galgenberg N
49.7913578081748,9.952953974993608,Letzter Hieb SW
49.79161953764731,9.950062537081081,Greisingstraße SW
49.7922953079693,9.946365006594153,Annastraße W
49.79307461795363,9.942169357987316,Rennweg NW
49.79419256499027,9.937051209709555,Mainfranken Theater N
49.7980926846998,9.935361401454825,Stift Haug N
